[
  {
    "photo": "potato.jpg",
    "name": "Potato Belorussia",
    "description": "Potato is very delicious product and promoted by great president Vladimir Lukashenko."
  },
  {
    "photo": "guitar.jpg",
    "name": "Guitar 6 strings",
    "description": "The guitar is a fretted musical instrument that usually has six strings."
  },
  {
    "photo": "converse.jpg",
    "name": "Converse all star sneakers",
    "description": "Converse is an American shoe company that primarily produces skating shoes and lifestyle brand footwear and apparel."
  },
  {
    "photo": "cheetos.jpeg",
    "name": "Cheetos Frito-Lay",
    "description": "Cheetos (formerly styled as Chee-tos until 1998) is a brand of cheese-flavored, puffed cornmeal snacks made by Frito-Lay, a subsidiary of PepsiCo."
  },
  {
    "photo": "cat.jpeg",
    "name": "Mr. Gregor the Cat",
    "description": "The domestic cat (Felis silvestris catus or Felis catus) is a small, typically furry, carnivorous mammal. They are often called house cats when kept as indoor pets or simply cats when there is no need to distinguish them from other felids and felines."
  },
  {
    "photo": "bmx-bike.jpg",
    "name": "BMX Bike, Motocross",
    "description": "BMX, an abbreviation for bicycle motocross or bike motocross, is a cycle sport performed on BMX bikes, either in competitive BMX racing or freestyle BMX, or else in general on- or off-road recreation."
  }
]
